Industrial Growth Opportunities — igo • aurininnovation
…
    Details

    The industrial growth opportunities are derived from the industrial comparative advantage data (see ica()), and a State based
model of economic complexity, developed by the Australian Industrial Transformation Institute at Flinders University,
in collaboration with the Government of South Australia.

Industrial growth opportunities capture, at the product level, what industrial development would be:
most beneficial for a region, and

most suitable for a region based on its industrial strengths.

    Examples

igo(2016)
#> # A tibble: 317,400 × 17
#>    locat…¹ hs_pr…² expor…³  year diver…⁴ ubiqu…⁵   mcp   eci   pci density   coi
#>    <chr>   <chr>     <dbl> <dbl>   <dbl>   <dbl> <dbl> <dbl> <dbl>   <dbl> <dbl>
#>  1 New So… 0105     717553  2016     178      31     0 0.333  1.06   0.171 0.731
#>  2 New So… 0105     717553  2016     178      31     0 0.333  1.06   0.171 0.731
#>  3 New So… 0105     717553  2016     178      31     0 0.333  1.06   0.171 0.731
#>  4 New So… 0105     717553  2016     178      31     0 0.333  1.06   0.171 0.731
#>  5 New So… 0105     717553  2016     178      31     0 0.333  1.06   0.171 0.731
#>  6 New So… 0105     717553  2016     178      31     0 0.333  1.06   0.171 0.731
#>  7 New So… 0105     717553  2016     178      31     0 0.333  1.06   0.171 0.731
#>  8 New So… 0105     717553  2016     178      31     0 0.333  1.06   0.171 0.731
#>  9 New So… 0105     717553  2016     178      31     0 0.333  1.06   0.171 0.731
#> 10 New So… 0105     717553  2016     178      31     0 0.333  1.06   0.171 0.731
#> # … with 317,390 more rows, 6 more variables: cog <dbl>, rca <dbl>,
#> #   anzsic_subdivision <chr>, sa2_name <chr>, ica <dbl>,
#> #   hs_product_name_short_en <chr>, and abbreviated variable names
#> #   ¹​location_code, ²​hs_product_code, ³​export_value, ⁴​diversity, ⁵​ubiquity
…
# Specifying a product may help to identify a region best suited to develop a new industry
igo(2016, product = "Artificial graphite")
#> # A tibble: 745 × 17
#>    locat…¹ hs_pr…² expor…³  year diver…⁴ ubiqu…⁵   mcp   eci   pci density   coi
#>    <chr>   <chr>     <dbl> <dbl>   <dbl>   <dbl> <dbl> <dbl> <dbl>   <dbl> <dbl>
#>  1 New So… 3801      25946  2016     178      15     0 0.333  2.12   0.124 0.731
#>  2 New So… 3801      25946  2016     178      15     0 0.333  2.12   0.124 0.731
#>  3 New So… 3801      25946  2016     178      15     0 0.333  2.12   0.124 0.731
#>  4 New So… 3801      25946  2016     178      15     0 0.333  2.12   0.124 0.731
#>  5 New So… 3801      25946  2016     178      15     0 0.333  2.12   0.124 0.731
#>  6 New So… 3801      25946  2016     178      15     0 0.333  2.12   0.124 0.731
#>  7 New So… 3801      25946  2016     178      15     0 0.333  2.12   0.124 0.731
#>  8 New So… 3801      25946  2016     178      15     0 0.333  2.12   0.124 0.731
#>  9 New So… 3801      25946  2016     178      15     0 0.333  2.12   0.124 0.731
#> 10 New So… 3801      25946  2016     178      15     0 0.333  2.12   0.124 0.731
#> # … with 735 more rows, 6 more variables: cog <dbl>, rca <dbl>,
#> #   anzsic_subdivision <chr>, sa2_name <chr>, ica <dbl>,
#> #   hs_product_name_short_en <chr>, and abbreviated variable names
#> #   ¹​location_code, ²​hs_product_code, ³​export_value, ⁴​diversity, ⁵​ubiquity
# Override defaults.
# Increasing the export value limit (from 0) focuses the opportunities
# on those with a stronger existing industrial base.

# Increasing the COG limit (from 0) focuses the opportunities
# on those which would bring a higher benefit to the region.

# Decreasing the RCA limit (from 1) focuses the opportunities
# on those which are less developed in the State.

# Increasing the ICA limit (from 1) focuses the opportunities
# on industries in which a region has a significant comparative advantage.

igo(2016, .export_value_limit = 1000, .cog_limit = 0.5, .rca_limit = 0.5, .ica_limit = 0.5)
#> # A tibble: 317,708 × 17
#>    locat…¹ hs_pr…² expor…³  year diver…⁴ ubiqu…⁵   mcp   eci   pci density   coi
#>    <chr>   <chr>     <dbl> <dbl>   <dbl>   <dbl> <dbl> <dbl> <dbl>   <dbl> <dbl>
#>  1 New So… 0105     717553  2016     178      31     0 0.333  1.06   0.171 0.731
#>  2 New So… 0105     717553  2016     178      31     0 0.333  1.06   0.171 0.731
#>  3 New So… 0105     717553  2016     178      31     0 0.333  1.06   0.171 0.731
#>  4 New So… 0105     717553  2016     178      31     0 0.333  1.06   0.171 0.731
#>  5 New So… 0105     717553  2016     178      31     0 0.333  1.06   0.171 0.731
#>  6 New So… 0105     717553  2016     178      31     0 0.333  1.06   0.171 0.731
#>  7 New So… 0105     717553  2016     178      31     0 0.333  1.06   0.171 0.731
#>  8 New So… 0105     717553  2016     178      31     0 0.333  1.06   0.171 0.731
#>  9 New So… 0105     717553  2016     178      31     0 0.333  1.06   0.171 0.731
#> 10 New So… 0105     717553  2016     178      31     0 0.333  1.06   0.171 0.731
#> # … with 317,698 more rows, 6 more variables: cog <dbl>, rca <dbl>,
#> #   anzsic_subdivision <chr>, sa2_name <chr>, ica <dbl>,
#> #   hs_product_name_short_en <chr>, and abbreviated variable names
#> #   ¹​location_code, ²​hs_product_code, ³​export_value, ⁴​diversity, ⁵​ubiquity
…
