Industrial growth opportunities • aurininnovation
…
The benefit to a region’s complexity from the development of a new product.

Preliminary analysis of regional export data reveals which products \(p\) are exported with comparative advantage by which region \(c\). Comparative advantage is measured through the Balassa Index and is defined by the share of exports of a product in a given region relative to the share of exports of that product in global trade. A region is said to have comparative advantage in a product if \(RCA_{cp} >=1\). The complete dataset for economic complexity captures over 1000 products, for more than 200 countries.

\[RCA_{cp} = \frac{X_{cp}}{\sum_{c}X_{cp}}/\frac{\sum_{p}X_{cp}}{\sum_{cp}X_{cp}}\] The benefit to a region’s economic complexity from the development of a new product is quantified by the complexity outlook gain (COG). The COG measures the benefit obtained from increasing the number of opportunities for future diversification through the creation of new paths from existing products to more complex products. [Add Product Space?]

State economic complexity

The smallest geographic region in which consistent and accurate export data is measured and made available are the Australian States and Territories. The Queensland Government Statistician’s Office provides a time series of state exports disaggregated by the 8-digit Australian Harmonised Export Commodity Classification (AHECC). The AHECC is a modified version of the Harmonised System, designed to capture and include products of specific importance to Australian industry. As such, it can be readily converted to the Harmonised System for inclusion in the country-product export data provided by the Atlas of Economic Complexity (2014). At the 6-digit level, the AHECC and HS are identical. Each year of state export data is converted from 6-digit AHECC to 6-digit HS using the United Nations Trade Statistics Correspondence Tables (Statistics, n.d.).

More recent state export data uses a combination of different versions of the Harmonised System. The conversion algorithm first uses the oldest available correspondence (HS 1992 to HS 1992). Where conversion between the AHECC and HS is unsuccessful (ie, where the state export data uses a HS code more recent than those in the correspondence), all matches are kept, and the next version of the correspondence is used to find matches for the unsuccessful product codes. This is repeated until all AHECC codes are matched to HS 1992 codes. See the help file for ahecc_to_hs for more information. The state based economic complexity data from 2011 onwards is included in this package.

state_economic_complexity
#> # A tibble: 248,496 × 13
#>    location_code     hs_product_code export_value  year diversity ubiquity   mcp
#>    <chr>             <chr>                  <dbl> <dbl>     <dbl>    <dbl> <dbl>
#>  1 Australian Capit… 0101                       0  1996        63       22     0
#>  2 Australian Capit… 0102                       0  1996        63       36     0
#>  3 Australian Capit… 0103                       0  1996        63       11     0
#>  4 Australian Capit… 0104                       0  1996        63       31     0
#>  5 Australian Capit… 0105                       0  1996        63       21     0
#>  6 Australian Capit… 0106                       0  1996        63       70     0
#>  7 Australian Capit… 0201                       0  1996        63       26     0
#>  8 Australian Capit… 0202                       0  1996        63       31     0
#>  9 Australian Capit… 0203                       0  1996        63       14     0
#> 10 Australian Capit… 0204                   27996  1996        63       23     1
#> # … with 248,486 more rows, and 6 more variables: eci <dbl>, pci <dbl>,
#> #   density <dbl>, coi <dbl>, cog <dbl>, rca <dbl>
…
This data is included with the aurininnovation package sa2_indp2_2011 and sa2_indp2_2016. Two values of employment are pre-supplied. One which is the raw data from the ABS, and another which has been adjusted to remove “not further defined” industry subdivisions. The industrial comparative advantage

Calcualting Industrial Comparative Advantage

Industrial comparative advantage can be calculated using the in built ica() function. This function requires a dataset with at least three columns containing the following data:

A variable specifying the geographical region to be investigated.

A variable specifying the industry.

A variable specifying the value of the employment in an industry in a geographical region.

The included sa2_indp2_2011 and sa2_indp2_2016 meet this specification.

#> # A tibble: 240,660 × 4
#>    sa2_name  industry                                           employment  year
#>    <chr>     <chr>                                                   <dbl> <dbl>
#>  1 Braidwood Agriculture, Forestry and Fishing, nfd                      8  2016
#>  2 Braidwood Agriculture                                               217  2016
#>  3 Braidwood Aquaculture                                                 0  2016
#>  4 Braidwood Forestry and Logging                                        4  2016
#>  5 Braidwood Fishing, Hunting and Trapping                               0  2016
#>  6 Braidwood Agriculture, Forestry and Fishing Support Services         15  2016
#>  7 Braidwood Mining, nfd                                                 0  2016
#>  8 Braidwood Coal Mining                                                 0  2016
#>  9 Braidwood Oil and Gas Extraction                                      0  2016
#> 10 Braidwood Metal Ore Mining                                            0  2016
#> # … with 240,650 more rows

The industrial comparative advantage for 2016 can be calculated simply. By default, ica() removes regions with total employment less than 150, to account for perturbations applied by the ABS to small cell values in the TableBuilder.

ica(years = 2016)
#> # A tibble: 240,660 × 4
#>    sa2_name   industry                                              ica  year
#>    <chr>      <chr>                                               <dbl> <dbl>
#>  1 Abbotsford Accommodation                                      0.378   2016
#>  2 Abbotsford Accommodation and Food Services, nfd               0       2016
#>  3 Abbotsford Administrative and Support Services, nfd           0       2016
#>  4 Abbotsford Administrative Services                            0.806   2016
#>  5 Abbotsford Adult, Community and Other Education               0.737   2016
#>  6 Abbotsford Agriculture                                        0.0698  2016
#>  7 Abbotsford Agriculture, Forestry and Fishing Support Services 0       2016
#>  8 Abbotsford Agriculture, Forestry and Fishing, nfd             0       2016
#>  9 Abbotsford Air and Space Transport                            0.700   2016
#> 10 Abbotsford Aquaculture                                        0       2016
#> # … with 240,650 more rows

This produces the dataset as provided to AURIN. However, further control over calculation of the location quotient is available. For example, to calculate the industrial comparative advantage using employment by industry adjusted to remove “not further defined” industries, specify value variable as employment_adj.

ica(years = 2016, value_var = "employment_adj")
#> # A tibble: 240,660 × 4
#>    sa2_name   industry                                                ica  year
#>    <chr>      <chr>                                                 <dbl> <dbl>
#>  1 Abbotsford Accommodation                                        0.377   2016
#>  2 Abbotsford Accommodation and Food Services, nfd               NaN       2016
#>  3 Abbotsford Administrative and Support Services, nfd           NaN       2016
#>  4 Abbotsford Administrative Services                              0.805   2016
#>  5 Abbotsford Adult, Community and Other Education                 0.788   2016
#>  6 Abbotsford Agriculture                                          0.0690  2016
#>  7 Abbotsford Agriculture, Forestry and Fishing Support Services   0       2016
#>  8 Abbotsford Agriculture, Forestry and Fishing, nfd             NaN       2016
#>  9 Abbotsford Air and Space Transport                              0.708   2016
#> 10 Abbotsford Aquaculture                                          0       2016
#> # … with 240,650 more rows

The minimum value for a region’s total employment can be controlled by specifying min_value.

ica(years = 2016, min_value = 1000)
#> # A tibble: 240,660 × 4
#>    sa2_name   industry                                              ica  year
#>    <chr>      <chr>                                               <dbl> <dbl>
#>  1 Abbotsford Accommodation                                      0.378   2016
#>  2 Abbotsford Accommodation and Food Services, nfd               0       2016
#>  3 Abbotsford Administrative and Support Services, nfd           0       2016
#>  4 Abbotsford Administrative Services                            0.806   2016
#>  5 Abbotsford Adult, Community and Other Education               0.737   2016
#>  6 Abbotsford Agriculture                                        0.0698  2016
#>  7 Abbotsford Agriculture, Forestry and Fishing Support Services 0       2016
#>  8 Abbotsford Agriculture, Forestry and Fishing, nfd             0       2016
#>  9 Abbotsford Air and Space Transport                            0.700   2016
#> 10 Abbotsford Aquaculture                                        0       2016
#> # … with 240,650 more rows

Additionally, the data can be filtered based on the size of total industry employment by specifying both min_value and total_var. Industries with less than 2000 employees can be removed as follows:

ica(years = 2016, total_var = "industry_employment", min_value = 2000)
#> # A tibble: 226,908 × 4
#>    sa2_name   industry                                              ica  year
#>    <chr>      <chr>                                               <dbl> <dbl>
#>  1 Abbotsford Accommodation                                      0.378   2016
#>  2 Abbotsford Administrative Services                            0.806   2016
#>  3 Abbotsford Adult, Community and Other Education               0.737   2016
#>  4 Abbotsford Agriculture                                        0.0698  2016
#>  5 Abbotsford Agriculture, Forestry and Fishing Support Services 0       2016
#>  6 Abbotsford Agriculture, Forestry and Fishing, nfd             0       2016
#>  7 Abbotsford Air and Space Transport                            0.700   2016
#>  8 Abbotsford Aquaculture                                        0       2016
#>  9 Abbotsford Arts and Recreation Services, nfd                  4.72    2016
#> 10 Abbotsford Auxiliary Finance and Insurance Services           9.99    2016
#> # … with 226,898 more rows

Reproduction of Industrial Growth Opportunities Dataset

The industrial growth opportunities dataset combines regional data on industrial strengths, as calculated by the industrial comparative advantage, and product opportunity data at the state level, as calculated by the state economic complexity model. This allows for productive capabilities present at the state level to be matched to industrial capabilities present at the regional level. Products in the state_economic_complexity dataset are matched to the industry which produces them, based on the ABS International Merchandise Trade Appendix 6.1 AHECC Historical Correspondence (Statistics 2018, n.d.). This industry is then matched with the industry strengths identified in the industrial comparative advantage data.

Industrial growth opportunities for a region are those which: 1. Are produced by an industry which the region has an industrial comparative advantage. 2. Are not exported from the State the region is located with revealed comparative advantage. 3. Is exported in some capacity by the State the region is located. 4. Would increase the economic complexity of the State the region is located.

The full industrial growth opportunities dataset can be generated using the conditions outlined above through the igo() function.

igo(year = 2016)
#> # A tibble: 317,400 × 11
#>     Year `Statistical Area 2 …` `Statistical A…` `Product Oppor…` `Product Code`
#>    <dbl> <chr>                  <chr>            <chr>            <chr>         
#>  1  2016 206071139              Abbotsford       Vegetable saps … 1302          
#>  2  2016 206071139              Abbotsford       Glycerol         1520          
#>  3  2016 206071139              Abbotsford       Waters           2201          
#>  4  2016 206071139              Abbotsford       Waters, flavore… 2202          
#>  5  2016 206071139              Abbotsford       Spirits < 80% a… 2208          
#>  6  2016 206071139              Abbotsford       Iodine           2801          
#>  7  2016 206071139              Abbotsford       Carbon           2803          
#>  8  2016 206071139              Abbotsford       Silicon & rare … 2804          
#>  9  2016 206071139              Abbotsford       Rare-earth meta… 2805          
#> 10  2016 206071139              Abbotsford       Sulfiric acid, … 2807          
#> # … with 317,390 more rows, and 6 more variables:
#> #   `Product Development Benefit` <dbl>, `Product Industry` <chr>,
#> #   `Region Industry Comparative Advantage` <dbl>, State <chr>,
#> #   `State Export Value` <dbl>, `State Export Comparative Advantage` <dbl>
…
igo(year = 2016, product = "Aluminum Bars")
#> # A tibble: 0 × 11
#> # … with 11 variables: Year <dbl>, Statistical Area 2 Code <chr>,
#> #   Statistical Area 2 Name <chr>, Product Opportunity <chr>,
#> #   Product Code <chr>, Product Development Benefit <dbl>,
#> #   Product Industry <chr>, Region Industry Comparative Advantage <dbl>,
#> #   State <chr>, State Export Value <dbl>,
#> #   State Export Comparative Advantage <dbl>

Similar to the industrial comparative advantage calculation, the default conditions can be overridden.

igo(year = 2016, .export_value_limit = 1000, .cog_limit = 0.5, .rca_limit = 0.5, .ica_limit = 1.5)
#> # A tibble: 125,345 × 11
#>     Year `Statistical Area 2 …` `Statistical A…` `Product Oppor…` `Product Code`
#>    <dbl> <chr>                  <chr>            <chr>            <chr>         
#>  1  2016 206071139              Abbotsford       Glycerol         1520          
#>  2  2016 206071139              Abbotsford       Carbon           2803          
#>  3  2016 206071139              Abbotsford       Silicon & rare … 2804          
#>  4  2016 206071139              Abbotsford       Rare-earth meta… 2805          
#>  5  2016 206071139              Abbotsford       Sulfonitric aci… 2808          
#>  6  2016 206071139              Abbotsford       Other inorganic… 2811          
#>  7  2016 206071139              Abbotsford       Sodium hydroxide 2815          
#>  8  2016 206071139              Abbotsford       Iron oxides and… 2821          
#>  9  2016 206071139              Abbotsford       Titanium oxides  2823          
#> 10  2016 206071139              Abbotsford       Metal base oxid… 2825          
#> # … with 125,335 more rows, and 6 more variables:
#> #   `Product Development Benefit` <dbl>, `Product Industry` <chr>,
#> #   `Region Industry Comparative Advantage` <dbl>, State <chr>,
#> #   `State Export Value` <dbl>, `State Export Comparative Advantage` <dbl>
…
